Calculate service pattern ids for a GTFS feed — set_servicepattern • tidytransit
…
hash_length
length the hash should be cut to with substr(). Use -1 if the full
hash should be used

    Value

    modified gtfs_obj with added servicepattern list and a table linking
trips and pattern (trip_servicepatterns), added to gtfs_obj$. sublist.

    Examples

gtfs = set_servicepattern(gtfs_duke)
gtfs$.$dates_servicepatterns
#> # A tibble: 463 × 2
#>    date       servicepattern_id
#>    <date>     <chr>            
#>  1 2019-07-05 s_7e264b5        
#>  2 2019-07-08 s_7e264b5        
#>  3 2019-07-09 s_7e264b5        
#>  4 2019-07-10 s_7e264b5        
#>  5 2019-07-11 s_7e264b5        
#>  6 2019-07-12 s_7e264b5        
#>  7 2019-07-15 s_7e264b5        
#>  8 2019-07-16 s_7e264b5        
#>  9 2019-07-17 s_7e264b5        
#> 10 2019-07-18 s_7e264b5        
#> # ℹ 453 more rows
…
