…
Note that some files (`calendar.txt`, `calendar_dates.txt` and
`feed_info.txt`) are conditionally required. This means that:

- `calendar.txt` is initially set as a required file. If it's not
  present, however, it becomes optional and `calendar_dates.txt`
  (originally set as optional) becomes required.

- `feed_info.txt` is initially set as an optional file. If
  `translations.txt` is present, however, it becomes required.

## Examples

``` r
validate_gtfs(gtfs_duke)
#> # A tibble: 254 × 8
#>    file   file_spec file_provided_status field  field_spec field_provided_status
#>    <chr>  <chr>     <lgl>                <chr>  <chr>      <lgl>                
#>  1 agency Required  TRUE                 agenc… Condition… TRUE                 
#>  2 agency Required  TRUE                 agenc… Required   TRUE                 
#>  3 agency Required  TRUE                 agenc… Required   TRUE                 
#>  4 agency Required  TRUE                 agenc… Required   TRUE                 
#>  5 agency Required  TRUE                 agenc… Optional   TRUE                 
#>  6 agency Required  TRUE                 agenc… Optional   TRUE                 
#>  7 agency Required  TRUE                 agenc… Optional   TRUE                 
#>  8 agency Required  TRUE                 agenc… Optional   FALSE                
#>  9 areas  Optional  FALSE                area_… Required   FALSE                
#> 10 areas  Optional  FALSE                area_… Optional   FALSE                
#> # ℹ 244 more rows
#> # ℹ 2 more variables: validation_status <chr>, validation_details <chr>
…
